<svg width="14" height="18" viewBox="0 0 14 18" fill="none" xmlns="http://www.w3.org/2000/svg">
<path fill-rule="evenodd" clip-rule="evenodd" d="M14 6.5H10V0.5H4V6.5H0L7 13.5L14 6.5ZM6 8.5V2.5H8V8.5H9.17L7 10.67L4.83 8.5H6ZM14 17.5V15.5H0V17.5H14Z" fill="black"/>
</svg>
