<svg width="28" height="22" viewBox="0 0 28 22" fill="none" xmlns="http://www.w3.org/2000/svg">
<path d="M24.667 3.00065H14.0003L11.3337 0.333984H3.33366C1.86699 0.333984 0.680326 1.53398 0.680326 3.00065L0.666992 19.0007C0.666992 20.4673 1.86699 21.6673 3.33366 21.6673H24.667C26.1337 21.6673 27.3337 20.4673 27.3337 19.0007V5.66732C27.3337 4.20065 26.1337 3.00065 24.667 3.00065ZM18.0003 7.00065C19.467 7.00065 20.667 8.20065 20.667 9.66732C20.667 11.134 19.467 12.334 18.0003 12.334C16.5337 12.334 15.3337 11.134 15.3337 9.66732C15.3337 8.20065 16.5337 7.00065 18.0003 7.00065ZM23.3337 17.6673H12.667V16.334C12.667 14.5606 16.227 13.6673 18.0003 13.6673C19.7737 13.6673 23.3337 14.5606 23.3337 16.334V17.6673Z" fill="white"/>
</svg>
