<svg width="20" height="17" viewBox="0 0 20 17" fill="none" xmlns="http://www.w3.org/2000/svg">
<path fill-rule="evenodd" clip-rule="evenodd" d="M18 0.794922H2C0.9 0.794922 0.01 1.69492 0.01 2.79492L0 14.7949C0 15.8949 0.9 16.7949 2 16.7949H18C19.1 16.7949 20 15.8949 20 14.7949V2.79492C20 1.69492 19.1 0.794922 18 0.794922ZM2 4.79492L10 9.79492L18 4.79492V14.7949H2V4.79492ZM2 2.79492L10 7.79492L18 2.79492H2Z" fill="white"/>
</svg>
