<svg width="14" height="18" viewBox="0 0 14 18" fill="none" xmlns="http://www.w3.org/2000/svg">
<path fill-rule="evenodd" clip-rule="evenodd" d="M10 13.5V7.5H14L7 0.5L0 7.5H4V13.5H10ZM7 3.33L9.17 5.5H8V11.5H6V5.5H4.83L7 3.33ZM14 17.5V15.5H0V17.5H14Z" fill="white"/>
</svg>
