<svg width="8" height="14" viewBox="0 0 8 14" fill="none" xmlns="http://www.w3.org/2000/svg">
<path d="M4 0L7.4641 6H0.535898L4 0Z" fill="#FFB600"/>
<path d="M4 14L0.535898 8L7.4641 8L4 14Z" fill="black"/>
</svg>
